index|ticker|name|Sector|Location
SP500|MMM|3M Co|Industrials|Maplewood, Minnesota
SP500|ACE|ACE Limited|Financials|Zurich, Switzerland
SP500|ABT|Abbott Laboratories|Health Care|North Chicago, Illinois
SP500|ANF|Abercrombie & Fitch Company A|Consumer Discretionary|New Albany, Ohio
SP500|ADBE|Adobe Systems Inc|Information Technology|San Jose, California
SP500|AMD|Advanced Micro Devices|Information Technology|Sunnyvale, California
SP500|AES|AES Corp|Utilities|Arlington, Virginia
SP500|AET|Aetna Inc|Health Care|Hartford, Connecticut
SP500|AFL|AFLAC Inc|Financials|Columbus, Georgia
SP500|A|Agilent Technologies Inc|Information Technology|Santa Clara, California
SP500|APD|Air Products & Chemicals Inc|Materials|Allentown, Pennsylvania
SP500|ARG|Airgas Inc|Materials|Radnor Township, Pennsylvania
SP500|AKS|AK Steel Hldg Corp|Materials|West Chester Township, Ohio
SP500|AKAM|Akamai Technologies Inc|Information Technology|Cambridge, Massachusetts
SP500|AA|Alcoa Inc|Materials|Pittsburgh, Pennsylvania
SP500|ATI|Allegheny Technologies Inc|Materials|Pittsburgh, Pennsylvania
SP500|AGN|Allergan Inc|Health Care|Irvine, California
SP500|ALL|Allstate Corp|Financials|Northfield Township, Illinois
SP500|ALTR|Altera Corp|Information Technology|San Jose, California
SP500|MO|Altria Group Inc|Consumer Staples|Henrico County, Virginia
SP500|AMZN|Amazon.com Inc|Consumer Discretionary|Seattle, Washington
SP500|AEE|Ameren Corp|Utilities|St. Louis, Missouri
SP500|AEP|American Electric Power|Utilities|Columbus, Ohio
SP500|AXP|American Express Co|Financials|New York, New York
SP500|AIG|American Intl Group Inc|Financials|New York, New York
SP500|AMT|American Tower Corp A|Telecommunications Services|Boston, Massachusetts
SP500|AMP|Ameriprise Financial|Financials|Minneapolis, Minnesota
SP500|ABC|AmerisourceBergen Corp|Health Care|Chesterbrook, Pennsylvania
SP500|AMGN|Amgen Inc|Health Care|Thousand Oaks, California
SP500|APH|Amphenol Corp A|Industrials|Wallingford, Connecticut
SP500|APC|Anadarko Petroleum Corp|Energy|The Woodlands, Texas
SP500|ADI|Analog Devices Inc|Information Technology|Norwood, Massachusetts
SP500|AON|Aon Corporation|Financials|Chicago, Illinois
SP500|APA|Apache Corporation|Energy|Houston, Texas
SP500|AIV|Apartment Investment & Mgmt|Financials|Denver, Colorado
SP500|APOL|Apollo Group Inc|Consumer Discretionary|Phoenix, Arizona
SP500|AAPL|Apple Inc.|Information Technology|Cupertino, California
SP500|AMAT|Applied Materials Inc|Information Technology|Santa Clara, California
SP500|ADM|Archer-Daniels-Midland Co|Consumer Staples|Decatur, Illinois
SP500|AIZ|Assurant Inc|Financials|New York, New York
SP500|T|AT&T Inc|Telecommunications Services|Dallas, Texas
SP500|ADSK|Autodesk Inc|Information Technology|San Rafael, California
SP500|ADP|Automatic Data Processing|Information Technology|Roseland, New Jersey
SP500|AN|AutoNation Inc|Consumer Discretionary|Fort Lauderdale, Florida
SP500|AZO|AutoZone Inc|Consumer Discretionary|Memphis, Tennessee
SP500|AVB|AvalonBay Communities, Inc.|Financials|Arlington, Virginia[1]
SP500|AVY|Avery Dennison Corp|Industrials|Pasadena, California
SP500|AVP|Avon Products|Consumer Staples|New York, New York
SP500|BHI|Baker Hughes Inc|Energy|Houston, Texas
SP500|BLL|Ball Corp|Materials|Broomfield, Colorado
SP500|BAC|Bank of America Corp|Financials|Charlotte, North Carolina
SP500|BK|The Bank of New York Mellon Corp.|Financials|New York, New York
SP500|BCR|Bard (C.R.) Inc.|Health Care|Murray Hill, New Jersey
SP500|BAX|Baxter International Inc.|Health Care|Deerfield, Illinois
SP500|BBT|BB&T Corporation|Financials|Winston-Salem, North Carolina
SP500|BDX|Becton Dickinson|Health Care|Franklin Lakes, New Jersey
SP500|BBBY|Bed Bath & Beyond|Consumer Discretionary|Union, New Jersey
SP500|BMS|Bemis Company|Materials|Neenah, Wisconsin
SP500|BRK.B|Berkshire Hathaway|Financials|Omaha, Nebraska
SP500|BBY|Best Buy Co. Inc.|Consumer Discretionary|Richfield, Minnesota
SP500|BIG|Big Lots Inc.|Consumer Discretionary|Columbus, Ohio
SP500|BIIB|BIOGEN IDEC Inc.|Health Care|Weston, Massachusetts
SP500|BLK|Blackrock|Financials|New York, New York
SP500|HRB|Block H&R|Consumer Discretionary|Kansas City, Missouri
SP500|BMC|BMC Software|Information Technology|Houston, Texas
SP500|BA|Boeing Company|Industrials|Chicago, Illinois
SP500|BXP|Boston Properties|Financials|Boston, Massachusetts
SP500|BSX|Boston Scientific|Health Care|Natick, Massachusetts
SP500|BMY|Bristol-Myers Squibb|Health Care|New York, New York
SP500|BRCM|Broadcom Corporation|Information Technology|Irvine, California
SP500|BF.B|Brown-Forman Corporation|Consumer Staples|Louisville, Kentucky
SP500|CHRW|C. H. Robinson Worldwide|Industrials|Eden Prairie, Minnesota
SP500|CA|CA, Inc.|Information Technology|Islandia, New York
SP500|CVC|Cablevision Systems Corp.|Consumer Discretionary|Bethpage, New York
SP500|COG|Cabot Oil & Gas|Energy|Houston, Texas
SP500|CAM|Cameron International Corp.|Energy|Houston, Texas
SP500|CPB|Campbell Soup|Consumer Staples|Camden, New Jersey
SP500|COF|Capital One Financial|Financials|Tysons Corner, Virginia
SP500|CAH|Cardinal Health Inc.|Health Care|Dublin, Ohio
SP500|CFN|Carefusion|Health Care|San Diego, California[2]
SP500|KMX|Carmax Inc|Consumer Discretionary|Richmond, Virginia
SP500|CCL|Carnival Corp.|Consumer Discretionary|Miami, Florida
SP500|CAT|Caterpillar Inc.|Industrials|Peoria, Illinois
SP500|CBG|CB Richard Ellis Group|Financials|Los Angeles, California
SP500|CBS|CBS Corp.|Consumer Discretionary|New York, New York
SP500|CELG|Celgene Corp.|Health Care|Summit, New Jersey
SP500|CNP|CenterPoint Energy|Utilities|Houston, Texas
SP500|CTL|CenturyTel Inc|Telecommunications Services|Monroe, Louisiana
SP500|CEPH|Cephalon Inc|Health Care|Frazer, Pennsylvania
SP500|CERN|Cerner|Health Care|North Kansas City, Missouri
SP500|CF|CF Industries Holdings Inc|Materials|Deerfield, Illinois
SP500|SCHW|Charles Schwab|Financials|San Francisco, California
SP500|CHK|Chesapeake Energy|Energy|Oklahoma City, Oklahoma
SP500|CVX|Chevron Corp.|Energy|San Ramon, California
SP500|CB|Chubb Corp.|Financials|Warren, New Jersey
SP500|CI|CIGNA Corp.|Health Care|Philadelphia, Pennsylvania
SP500|CINF|Cincinnati Financial|Financials|Fairfield, Ohio
SP500|CTAS|Cintas Corporation|Industrials|Mason, Ohio
SP500|CSCO|Cisco Systems|Information Technology|San Jose, California
SP500|C|Citigroup Inc.|Financials|New York, New York
SP500|CTXS|Citrix Systems|Information Technology|Fort Lauderdale, Florida
SP500|CLF|Cliffs Natural Resources|Materials|Cleveland, Ohio
SP500|CLX|Clorox Co.|Consumer Staples|Oakland, California
SP500|CME|CME Group Inc.|Financials|Chicago, Illinois
SP500|CMS|CMS Energy|Utilities|Jackson, Michigan
SP500|COH|Coach Inc.|Consumer Discretionary|New York, New York
SP500|KO|Coca Cola Co.|Consumer Staples|Atlanta, Georgia
SP500|CCE|Coca-Cola Enterprises|Consumer Staples|Atlanta, Georgia
SP500|CTSH|Cognizant Technology Solutions|Information Technology|Teaneck, New Jersey
SP500|CL|Colgate-Palmolive|Consumer Staples|New York, New York
SP500|CMCSA|Comcast Corp.|Consumer Discretionary|Philadelphia, Pennsylvania
SP500|CMA|Comerica Inc.|Financials|Dallas, Texas
SP500|CSC|Computer Sciences Corp.|Information Technology|Falls Church, Virginia
SP500|CPWR|Compuware Corp.|Information Technology|Detroit, Michigan
SP500|CAG|ConAgra Foods Inc.|Consumer Staples|Omaha, Nebraska
SP500|COP|ConocoPhillips|Energy|Houston, Texas
SP500|CNX|CONSOL Energy Inc.|Energy|Cecil Township, Pennsylvania
SP500|ED|Consolidated Edison|Utilities|New York, New York
SP500|STZ|Constellation Brands|Consumer Staples|Victor, New York
SP500|CEG|Constellation Energy Group|Utilities|Baltimore, Maryland
SP500|GLW|Corning Inc.|Industrials|Corning, New York
SP500|COST|Costco Co.|Consumer Staples|Issaquah, Washington
SP500|CVH|Coventry Health Care Inc.|Health Care|Bethesda, Maryland
SP500|COV|Covidien plc|Health Care|Dublin, Ireland
SP500|CSX|CSX Corp.|Industrials|Jacksonville, Florida
SP500|CMI|Cummins Inc.|Industrials|Columbus, Indiana
SP500|CVS|CVS Caremark Corp.|Consumer Staples|Woonsocket, Rhode Island
SP500|DHI|D. R. Horton|Consumer Discretionary|Fort Worth, Texas
SP500|DHR|Danaher Corp.|Industrials|Washington D.C
SP500|DRI|Darden Restaurants|Consumer Discretionary|Orlando, Florida
SP500|DVA|DaVita Inc.|Health Care|Denver, Colorado
SP500|DF|Dean Foods|Consumer Staples|Dallas, Texas
SP500|DE|Deere & Co.|Industrials|Moline, Illinois
SP500|DELL|Dell Inc.|Information Technology|Round Rock, Texas
SP500|DNR|Denbury Resources Inc.|Energy|Plano, Texas[3]
SP500|XRAY|Dentsply International|Health Care|York, Pennsylvania
SP500|DVN|Devon Energy Corp.|Energy|Oklahoma City, Oklahoma
SP500|DV|DeVry, Inc.|Consumer Discretionary|Downers Grove, Illinois
SP500|DO|Diamond Offshore Drilling|Energy|Houston, Texas
SP500|DTV|DirecTV|Consumer Discretionary|El Segundo, California
SP500|DFS|Discover Financial Services|Financials|Riverwoods, Illinois
SP500|DISCA|Discovery Communications|Consumer Discretionary|Silver Spring, Maryland
SP500|D|Dominion Resources|Utilities|Richmond, Virginia
SP500|RRD|Donnelley (R.R.) & Sons|Industrials|Chicago, Illinois
SP500|DOV|Dover Corp.|Industrials|Downers Grove, Illinois
SP500|DOW|Dow Chemical|Materials|Midland, Michigan
SP500|DPS|Dr Pepper Snapple Group|Consumer Staples|Plano, Texas
SP500|DTE|DTE Energy Co.|Utilities|Detroit, Michigan
SP500|DD|Du Pont (E.I.)|Materials|Wilmington, Delaware
SP500|DUK|Duke Energy|Utilities|Charlotte, North Carolina
SP500|DNB|Dun & Bradstreet|Industrials|Short Hills, New Jersey
SP500|ETFC|E-Trade|Financials|New York, New York
SP500|EMN|Eastman Chemical|Materials|Kingsport, Tennessee
SP500|ETN|Eaton Corp.|Industrials|Cleveland, Ohio
SP500|EBAY|eBay Inc.|Information Technology|San Jose, California
SP500|ECL|Ecolab Inc.|Materials|St. Paul, Minnesota
SP500|EIX|Edison Int'l|Utilities|Rosemead, California
SP500|EW|Edwards Lifesciences|Health Care|Irvine, California
SP500|EP|El Paso Corp.|Energy|Houston, Texas
SP500|ERTS|Electronic Arts|Information Technology|Redwood City, California
SP500|EMC|EMC Corp.|Information Technology|Hopkinton, Massachusetts
SP500|EMR|Emerson Electric|Industrials|Ferguson, Missouri
SP500|ETR|Entergy Corp.|Utilities|New Orleans, Louisiana
SP500|EOG|EOG Resources|Energy|Houston, Texas
SP500|EQT|EQT Corporation|Utilities|Pittsburgh, Pennsylvania
SP500|EFX|Equifax Inc.|Financials|Atlanta, Georgia
SP500|EQR|Equity Residential|Financials|Chicago, Illinois
SP500|EL|Estee Lauder Cos.|Consumer Staples|New York, New York
SP500|EXC|Exelon Corp.|Utilities|Chicago, Illinois
SP500|EXPE|Expedia Inc.|Consumer Discretionary|Bellevue, Washington
SP500|EXPD|Expeditors Int'l|Industrials|Seattle, Washington
SP500|ESRX|Express Scripts|Health Care|Cool Valley, Missouri
SP500|XOM|Exxon Mobil Corp.|Energy|Irving, Texas
SP500|FFIV|F5 Networks|Information Technology|Seattle, Washington
SP500|FDO|Family Dollar Stores|Consumer Discretionary|Matthews, North Carolina
SP500|FAST|Fastenal Co|Industrials|Winona, Minnesota
SP500|FII|Federated Investors Inc.|Financials|Pittsburgh, Pennsylvania
SP500|FDX|FedEx Corporation|Industrials|Memphis, Tennessee
SP500|FIS|Fidelity National Information Services|Information Technology|Jacksonville, Florida
SP500|FITB|Fifth Third Bancorp|Financials|Cincinnati, Ohio
SP500|FHN|First Horizon National|Financials|Memphis, Tennessee
SP500|FSLR|First Solar Inc|Industrials|Tempe, Arizona
SP500|FE|FirstEnergy Corp|Utilities|Akron, Ohio
SP500|FISV|Fiserv Inc|Information Technology|Brookfield, Wisconsin
SP500|FLIR|FLIR Systems|Information Technology|Wilsonville, Oregon
SP500|FLS|Flowserve Corporation|Industrials|Irving, Texas
SP500|FLR|Fluor Corp.|Industrials|Irving, Texas
SP500|FMC|FMC Corporation|Materials|Philadelphia, Pennsylvania
SP500|FTI|FMC Technologies Inc.|Energy|Houston, Texas
SP500|F|Ford Motor|Consumer Discretionary|Dearborn, Michigan
SP500|FRX|Forest Laboratories|Health Care|New York, New York
SP500|FO|Fortune Brands Inc.|Consumer Discretionary|Deerfield, Illinois
SP500|BEN|Franklin Resources|Financials|San Mateo, California
SP500|FCX|Freeport-McMoran Cp & Gld|Materials|Phoenix, Arizona
SP500|FTR|Frontier Communications|Telecommunications Services|Stamford, Connecticut
SP500|GME|GameStop Corp.|Consumer Discretionary|Grapevine, Texas
SP500|GCI|Gannett Co.|Consumer Discretionary|McLean, Virginia
SP500|GPS|Gap (The)|Consumer Discretionary|San Francisco, California
SP500|GD|General Dynamics|Industrials|Falls Church, Virginia
SP500|GE|General Electric|Industrials|Fairfield, Connecticut
SP500|GIS|General Mills|Consumer Staples|Golden Valley, Minnesota
SP500|GPC|Genuine Parts|Consumer Discretionary|Atlanta, Georgia
SP500|GNW|Genworth Financial Inc.|Financials|Richmond, Virginia
SP500|GILD|Gilead Sciences|Health Care|Foster City, California
SP500|GS|Goldman Sachs Group|Financials|New York, New York
SP500|GR|Goodrich Corporation|Industrials|Charlotte, North Carolina
SP500|GT|Goodyear Tire & Rubber|Consumer Discretionary|Akron, Ohio
SP500|GOOG|Google Inc.|Information Technology|Mountain View, California
SP500|GWW|Grainger (W.W.) Inc.|Industrials|Lake Forest, Illinois
SP500|HAL|Halliburton Co.|Energy|Houston, Texas
SP500|HOG|Harley-Davidson|Consumer Discretionary|Milwaukee, Wisconsin
SP500|HAR|Harman Int'l Industries|Consumer Discretionary|Stamford, Connecticut
SP500|HRS|Harris Corporation|Information Technology|Melbourne, Florida
SP500|HIG|Hartford Financial Svc.Gp.|Financials|Hartford, Connecticut
SP500|HAS|Hasbro Inc.|Consumer Discretionary|Pawtucket, Rhode Island
SP500|HCP|HCP Inc.|Financials|Long Beach, California
SP500|HCN|Health Care REIT|Financials|Toledo, Ohio[4]
SP500|HNZ|Heinz (H.J.)|Consumer Staples|Pittsburgh, Pennsylvania
SP500|HP|Helmerich & Payne|Energy|Tulsa, Oklahoma[5]
SP500|HES|Hess Corporation|Energy|New York, New York
SP500|HPQ|Hewlett-Packard|Information Technology|Palo Alto, California
SP500|HD|Home Depot|Consumer Discretionary|Cobb County, Georgia
SP500|HON|Honeywell Int'l Inc.|Industrials|Morristown, New Jersey
SP500|HRL|Hormel Foods Corp.|Consumer Staples|Austin, Minnesota
SP500|HSP|Hospira Inc.|Health Care|Lake Forest, Illinois
SP500|HST|Host Hotels & Resorts|Financials|Bethesda, Maryland
SP500|HCBK|Hudson City Bancorp|Financials|Paramus, New Jersey
SP500|HUM|Humana Inc.|Health Care|Louisville, Kentucky
SP500|HBAN|Huntington Bancshares|Financials|Columbus, Ohio
SP500|ITW|Illinois Tool Works|Industrials|Glenview, Illinois
SP500|TEG|Integrys Energy Group Inc.|Utilities|Chicago, Illinois
SP500|INTC|Intel Corp.|Information Technology|Santa Clara, California
SP500|ICE|IntercontinentalExchange Inc.|Financials|Atlanta, Georgia
SP500|IBM|International Bus. Machines|Information Technology|Armonk, New York
SP500|IFF|International Flav/Frag|Materials|New York, New York
SP500|IGT|International Game Technology|Consumer Discretionary|Reno, Nevada
SP500|IP|International Paper|Materials|Memphis, Tennessee
SP500|IPG|Interpublic Group|Consumer Discretionary|New York, New York
SP500|INTU|Intuit Inc.|Information Technology|Mountain View, California
SP500|ISRG|Intuitive Surgical Inc.|Health Care|Sunnyvale, California
SP500|IVZ|Invesco Ltd.|Financials|Atlanta, Georgia
SP500|IRM|Iron Mountain Incorporated|Industrials|Boston, Massachusetts
SP500|ITT|ITT Corporation|Industrials|White Plains, New York
SP500|JBL|Jabil Circuit|Information Technology|St. Petersburg, Florida
SP500|JEC|Jacobs Engineering Group|Industrials|Pasadena, California
SP500|JNS|Janus Capital Group|Financials|Denver, Colorado
SP500|JDSU|JDS Uniphase Corp.|Information Technology|Milpitas, California
SP500|JNJ|Johnson & Johnson|Health Care|New Brunswick, New Jersey
SP500|JCI|Johnson Controls|Consumer Discretionary|Milwaukee, Wisconsin
SP500|JOYG|Joy Global Inc.|Industrials|Milwaukee, Wisconsin
SP500|JPM|JPMorgan Chase & Co.|Financials|New York, New York
SP500|JNPR|Juniper Networks|Information Technology|Sunnyvale, California
SP500|K|Kellogg Co.|Consumer Staples|Battle Creek, Michigan
SP500|KEY|KeyCorp|Financials|Cleveland, Ohio
SP500|KMB|Kimberly-Clark|Consumer Staples|Irving, Texas
SP500|KIM|Kimco Realty|Financials|New Hyde Park, New York
SP500|KLAC|KLA-Tencor Corp.|Information Technology|Milpitas, California
SP500|KSS|Kohl's Corp.|Consumer Discretionary|Menomonee Falls, Wisconsin
SP500|KFT|Kraft Foods Inc-A|Consumer Staples|Northfield, Illinois
SP500|KR|Kroger Co.|Consumer Staples|Cincinnati, Ohio
SP500|LLL|L-3 Communications Holdings|Industrials|New York, New York
SP500|LH|Laboratory Corp. of America Holding|Health Care|Burlington, North Carolina
SP500|LM|Legg Mason|Financials|Baltimore, Maryland
SP500|LEG|Leggett & Platt|Consumer Discretionary|Carthage, Missouri
SP500|LEN|Lennar Corp.|Consumer Discretionary|Miami, Florida
SP500|LUK|Leucadia National Corp.|Financials|New York, New York
SP500|LXK|Lexmark Int'l Inc|Information Technology|Lexington, Kentucky
SP500|LIFE|Life Technologies|Health Care|Carlsbad, California
SP500|LLY|Lilly (Eli) & Co.|Health Care|Indianapolis, Indiana
SP500|LTD|Limited Brands Inc.|Consumer Discretionary|Columbus, Ohio
SP500|LNC|Lincoln National|Financials|Radnor, Pennsylvania
SP500|LLTC|Linear Technology Corp.|Information Technology|Milpitas, California
SP500|LMT|Lockheed Martin Corp.|Industrials|Bethesda, Maryland
SP500|L|Loews Corp.|Financials|New York, New York
SP500|LO|Lorillard Inc.|Consumer Staples|Greensboro, North Carolina
SP500|LOW|Lowe's Cos.|Consumer Discretionary|North Wilkesboro, North Carolina
SP500|LSI|LSI Corporation|Information Technology|Milpitas, California
SP500|MTB|M&T Bank Corp.|Financials|Buffalo, New York
SP500|M|Macy's Inc.|Consumer Discretionary|Cincinnati, Ohio
SP500|MRO|Marathon Oil Corp.|Energy|Houston, Texas
SP500|MAR|Marriott Int'l.|Consumer Discretionary|Bethesda, Maryland
SP500|MMC|Marsh & McLennan|Financials|New York, New York
SP500|MI|Marshall & Ilsley Corp.|Financials|Milwaukee, Wisconsin
SP500|MAS|Masco Corp.|Industrials|Taylor, Michigan
SP500|ANR|Alpha Natural Resources|Energy|Abingdon, Virginia
SP500|MA|Mastercard Inc.|Information Technology|Harrison, New York
SP500|MAT|Mattel Inc.|Consumer Discretionary|El Segundo, California
SP500|MKC|McCormick & Co.|Consumer Staples|Sparks, Maryland
SP500|MCD|McDonald's Corp.|Consumer Discretionary|Oak Brook, Illinois
SP500|MHP|McGraw-Hill|Consumer Discretionary|New York, New York
SP500|MCK|McKesson Corp.|Health Care|San Francisco, California
SP500|MJN|Mead Johnson|Consumer Staples|Glenview, Illinois
SP500|MWV|MeadWestvaco Corporation|Materials|Richmond, Virginia
SP500|MHS|Medco Health Solutions Inc.|Health Care|Franklin Lakes, New Jersey
SP500|MDT|Medtronic Inc.|Health Care|Fridley, Minnesota
SP500|WFR|MEMC Electronic Materials|Information Technology|St. Peters, Missouri
SP500|MRK|Merck & Co.|Health Care|Whitehouse Station, New Jersey
SP500|MET|MetLife Inc.|Financials|New York, New York
SP500|PCS|MetroPCS Communications Inc.|Telecommunications Services|Richardson, Texas
SP500|MCHP|Microchip Technology|Information Technology|Chandler, Arizona
SP500|MU|Micron Technology|Information Technology|Boise, Idaho
SP500|MSFT|Microsoft Corp.|Information Technology|Redmond, Washington
SP500|MOLX|Molex Inc.|Information Technology|Lisle, Illinois
SP500|TAP|Molson Coors Brewing Company|Consumer Staples|Denver, Colorado
SP500|MON|Monsanto Co.|Materials|Creve Coeur, Missouri
SP500|MWW|Monster Worldwide|Industrials|New York, New York
SP500|MCO|Moody's Corp|Financials|New York, New York
SP500|MS|Morgan Stanley|Financials|New York, New York
SP500|MMI|Motorola Mobility Holdings Inc.|Information Technology|Libertyville, Illinois
SP500|MSI|Motorola Solutions Inc.|Information Technology|Schaumburg, Illinois
SP500|MUR|Murphy Oil|Energy|El Dorado, Arkansas
SP500|MYL|Mylan Inc.|Health Care|Canonsburg, Pennsylvania
SP500|NBR|Nabors Industries Ltd.|Energy|Hamilton, Bermuda
SP500|NDAQ|NASDAQ OMX Group|Financials|New York, New York
SP500|NOV|National Oilwell Varco Inc.|Energy|Houston, Texas
SP500|NSM|National Semiconductor|Information Technology|Santa Clara, California
SP500|NTAP|NetApp|Information Technology|Sunnyvale, California
SP500|NFLX|NetFlix Inc.|Information Technology|Los Gatos, California
SP500|NWL|Newell Rubbermaid Co.|Consumer Discretionary|Sandy Springs, Georgia
SP500|NFX|Newfield Exploration Co|Energy|Houston, Texas
SP500|NEM|Newmont Mining Corp. (Hldg. Co.)|Materials|Denver, Colorado
SP500|NWSA|News Corporation|Consumer Discretionary|New York, New York
SP500|NEE|NextEra Energy Resources|Utilities|Juno Beach, Florida
SP500|GAS|NICOR Inc.|Utilities|Naperville, Illinois
SP500|NKE|NIKE Inc.|Consumer Discretionary|Washington County, Oregon
SP500|NI|NiSource Inc.|Utilities|Merrillville, Indiana
SP500|NE|Noble Corp|Energy|Geneva, Switzerland
SP500|NBL|Noble Energy Inc|Energy|Houston, Texas
SP500|JWN|Nordstrom|Consumer Discretionary|Seattle, Washington
SP500|NSC|Norfolk Southern Corp.|Industrials|Norfolk, Virginia
SP500|NTRS|Northern Trust Corp.|Financials|Chicago, Illinois
SP500|NOC|Northrop Grumman Corp.|Industrials|Los Angeles, California
SP500|NU|Northeast Utilities|Utilities|Berlin, Connecticut
SP500|CMG|Chipotle Mexican Grill|Consumer Discretionary|Denver, Colorado
SP500|NVLS|Novellus Systems|Information Technology|San Jose, California
SP500|NRG|NRG Energy|Utilities|West Windsor Township, New Jersey
SP500|NUE|Nucor Corp.|Materials|Charlotte, North Carolina
SP500|NVDA|Nvidia Corporation|Information Technology|Santa Clara, California
SP500|NYX|NYSE Euronext|Financials|New York, New York
SP500|ORLY|O'Reilly Automotive|Consumer Discretionary|Springfield, Missouri
SP500|OXY|Occidental Petroleum|Energy|Los Angeles, California
SP500|OMC|Omnicom Group|Consumer Discretionary|New York, New York
SP500|OKE|ONEOK|Utilities|Tulsa, Oklahoma
SP500|ORCL|Oracle Corp.|Information Technology|Redwood Shores, California
SP500|OI|Owens-Illinois Inc|Materials|Perrysburg, Ohio
SP500|PCAR|PACCAR Inc.|Industrials|Bellevue, Washington
SP500|IR|Ingersoll-Rand PLC|Industrials|Dublin, Ireland
SP500|PLL|Pall Corp.|Industrials|Port Washington, New York
SP500|PH|Parker-Hannifin|Industrials|Cleveland, Ohio
SP500|PDCO|Patterson Companies|Health Care|St. Paul, Minnesota
SP500|PAYX|Paychex Inc.|Information Technology|Penfield, New York
SP500|BTU|Peabody Energy|Energy|St. Louis, Missouri
SP500|JCP|Penney (J.C.)|Consumer Discretionary|Plano, Texas
SP500|PBCT|People's United Bank|Financials|Bridgeport, Connecticut
SP500|POM|Pepco Holdings Inc.|Utilities|Washington D.C
SP500|PEP|PepsiCo Inc.|Consumer Staples|Purchase, New York
SP500|PKI|PerkinElmer|Health Care|Waltham, Massachusetts
SP500|PFE|Pfizer Inc.|Health Care|New York, New York
SP500|PCG|PG&E Corp.|Utilities|San Francisco, California
SP500|PM|Philip Morris International|Consumer Staples|New York, New York
SP500|PNW|Pinnacle West Capital|Utilities|Phoenix, Arizona
SP500|PXD|Pioneer Natural Resources|Energy|Irving, Texas
SP500|PBI|Pitney-Bowes|Industrials|Stamford, Connecticut
SP500|PCL|Plum Creek Timber Co.|Financials|Seattle, Washington
SP500|PNC|PNC Financial Services|Financials|Pittsburgh, Pennsylvania
SP500|RL|Polo Ralph Lauren Corp.|Consumer Discretionary|New York, New York
SP500|PPG|PPG Industries|Materials|Pittsburgh, Pennsylvania
SP500|PPL|PPL Corp.|Utilities|Allentown, Pennsylvania
SP500|PX|Praxair Inc.|Materials|Danbury, Connecticut
SP500|PCP|Precision Castparts|Industrials|Portland, Oregon
SP500|PCLN|Priceline.com Inc|Industrials|Norwalk, Connecticut
SP500|PFG|Principal Financial Group|Financials|Des Moines, Iowa
SP500|PG|Procter & Gamble|Consumer Staples|Cincinnati, Ohio
SP500|PGN|Progress Energy Inc.|Utilities|Raleigh, North Carolina
SP500|PGR|Progressive Corp.|Financials|Mayfield Village, Ohio
SP500|PLD|ProLogis|Financials|Denver, Colorado
SP500|PRU|Prudential Financial|Financials|Newark, New Jersey
SP500|PEG|Public Serv. Enterprise Inc.|Utilities|Newark, New Jersey
SP500|PSA|Public Storage|Financials|Glendale, California
SP500|PHM|Pulte Homes Inc.|Consumer Discretionary|Bloomfield Hills, Michigan
SP500|QEP|QEP Resources|Utilities|Denver, Colorado[6]
SP500|PWR|Quanta Services Inc.|Industrials|Houston, Texas
SP500|QCOM|QUALCOMM Inc.|Information Technology|San Diego, California
SP500|DGX|Quest Diagnostics|Health Care|Madison, New Jersey
SP500|RSH|RadioShack Corp|Consumer Discretionary|Fort Worth, Texas
SP500|RRC|Range Resources Corp.|Energy|Fort Worth, Texas
SP500|RTN|Raytheon Co.|Industrials|Waltham, Massachusetts
SP500|RHT|Red Hat Inc.|Information Technology|Raleigh, North Carolina
SP500|RF|Regions Financial Corp.|Financials|Birmingham, Alabama
SP500|RSG|Republic Services Inc|Industrials|Phoenix, Arizona
SP500|RAI|Reynolds American Inc.|Consumer Staples|Winston-Salem, North Carolina
SP500|RHI|Robert Half International|Industrials|Menlo Park, California
SP500|ROK|Rockwell Automation Inc.|Industrials|Milwaukee, Wisconsin
SP500|COL|Rockwell Collins|Industrials|Cedar Rapids, Iowa
SP500|ROP|Roper Industries|Industrials|Sarasota, Florida
SP500|ROST|Ross Stores Inc.|Consumer Discretionary|Pleasanton, California
SP500|RDC|Rowan Cos.|Energy|Houston, Texas
SP500|R|Ryder System|Industrials|Miami, Florida
SP500|SWY|Safeway Inc.|Consumer Staples|Pleasanton, California
SP500|SAI|SAIC|Information Technology|McLean, Virginia
SP500|CRM|Salesforce.com|Information Technology|San Francisco, California
SP500|SNDK|SanDisk Corporation|Information Technology|Milpitas, California
SP500|SLE|Sara Lee Corp.|Consumer Staples|Downers Grove, Illinois
SP500|SCG|SCANA Corp|Utilities|Cayce, South Carolina
SP500|SLB|Schlumberger Ltd.|Energy|Houston, Texas
SP500|SNI|Scripps Networks Interactive Inc.|Consumer Discretionary|Cincinnati, Ohio
SP500|SEE|Sealed Air Corp.(New)|Materials|Elmwood Park, New Jersey
SP500|SHLD|Sears Holdings Corporation|Consumer Discretionary|Hoffman Estates, Illinois
SP500|SRE|Sempra Energy|Utilities|San Diego, California
SP500|SHW|Sherwin-Williams|Consumer Discretionary|Cleveland, Ohio
SP500|SIAL|Sigma-Aldrich|Materials|St. Louis, Missouri
SP500|SPG|Simon Property Group Inc|Financials|Indianapolis, Indiana
SP500|SLM|SLM Corporation|Financials|Newark, Delaware
SP500|SJM|Smucker (J.M.)|Consumer Staples|Orrville, Ohio
SP500|SNA|Snap-On Inc.|Consumer Discretionary|Kenosha, Wisconsin
SP500|SO|Southern Co.|Utilities|Atlanta, Georgia
SP500|LUV|Southwest Airlines|Industrials|Dallas, Texas
SP500|SWN|Southwestern Energy|Energy|Houston, Texas[7]
SP500|SE|Spectra Energy Corp.|Energy|Houston, Texas
SP500|S|Sprint Nextel Corp.|Telecommunications Services|Overland Park, Kansas
SP500|STJ|St Jude Medical|Health Care|Little Canada, Minnesota
SP500|SWK|Stanley Black & Decker|Consumer Discretionary|New Britain, Connecticut
SP500|SPLS|Staples Inc.|Consumer Discretionary|Framingham, Massachusetts
SP500|SBUX|Starbucks Corp.|Consumer Discretionary|Seattle, Washington
SP500|HOT|Starwood Hotels & Resorts|Consumer Discretionary|White Plains, New York
SP500|STT|State Street Corp.|Financials|Boston, Massachusetts
SP500|SRCL|Stericycle Inc|Industrials|Lake Forest, Illinois
SP500|SYK|Stryker Corp.|Health Care|Kalamazoo, Michigan
SP500|SUN|Sunoco Inc.|Energy|Philadelphia, Pennsylvania
SP500|STI|SunTrust Banks|Financials|Atlanta, Georgia
SP500|SVU|Supervalu Inc.|Consumer Staples|Eden Prairie, Minnesota
SP500|SYMC|Symantec Corp.|Information Technology|Mountain View, California
SP500|SYY|Sysco Corp.|Consumer Staples|Houston, Texas
SP500|TROW|T. Rowe Price Group|Financials|Baltimore, Maryland
SP500|TGT|Target Corp.|Consumer Discretionary|Minneapolis, Minnesota
SP500|TE|TECO Energy|Utilities|Tampa, Florida
SP500|TLAB|Tellabs Inc.|Information Technology|Naperville, Illinois
SP500|THC|Tenet Healthcare Corp.|Health Care|Dallas, Texas
SP500|TDC|Teradata Corp.|Information Technology|Miamisburg, Ohio
SP500|TER|Teradyne Inc.|Information Technology|North Reading, Massachusetts
SP500|TSO|Tesoro Petroleum Co.|Energy|San Antonio, Texas
SP500|TXN|Texas Instruments|Information Technology|Dallas, Texas
SP500|TXT|Textron Inc.|Industrials|Providence, Rhode Island
SP500|HSY|The Hershey Company|Consumer Staples|Hershey, Pennsylvania
SP500|TRV|The Travelers Companies Inc.|Financials|St. Paul, Minnesota
SP500|TMO|Thermo Fisher Scientific|Health Care|Waltham, Massachusetts
SP500|TIF|Tiffany & Co.|Consumer Discretionary|New York, New York
SP500|TWX|Time Warner Inc.|Consumer Discretionary|New York, New York
SP500|TWC|Time Warner Cable Inc.|Consumer Discretionary|New York, New York
SP500|TIE|Titanium Metals Corp|Materials|Dallas, Texas
SP500|TJX|TJX Companies Inc.|Consumer Discretionary|Framingham, Massachusetts
SP500|TMK|Torchmark Corp.|Financials|McKinney, Texas
SP500|TSS|Total System Services|Information Technology|Columbus, Georgia
SP500|TSN|Tyson Foods|Consumer Staples|Springdale, Arkansas
SP500|TYC|Tyco International|Industrials|Princeton, New Jersey
SP500|USB|U.S. Bancorp|Financials|Minneapolis, Minnesota
SP500|UNP|Union Pacific|Industrials|Omaha, Nebraska
SP500|UNH|United Health Group Inc.|Health Care|Minnetonka, Minnesota
SP500|UPS|United Parcel Service|Industrials|Sandy Springs, Georgia
SP500|X|United States Steel Corp.|Materials|Pittsburgh, Pennsylvania
SP500|UTX|United Technologies|Industrials|Hartford, Connecticut
SP500|UNM|Unum Group|Financials|Chattanooga, Tennessee
SP500|URBN|Urban Outfitters|Consumer Discretionary|Philadelphia, Pennsylvania
SP500|VFC|V.F. Corp.|Consumer Discretionary|Greensboro, North Carolina
SP500|VLO|Valero Energy|Energy|San Antonio, Texas
SP500|VAR|Varian Medical Systems|Health Care|Palo Alto, California
SP500|VTR|Ventas Inc|Financials|Chicago, Illinois[8]
SP500|VRSN|Verisign Inc.|Information Technology|Dulles, Virginia
SP500|VZ|Verizon Communications|Telecommunications Services|New York, New York
SP500|VIAB|Viacom Inc.|Consumer Discretionary|New York, New York
SP500|V|Visa Inc.|Information Technology|San Francisco, California
SP500|VNO|Vornado Realty Trust|Financials|New York, New York
SP500|VMC|Vulcan Materials|Materials|Birmingham, Alabama
SP500|WMT|Wal-Mart Stores|Consumer Staples|Bentonville, Arkansas
SP500|WAG|Walgreen Co.|Consumer Staples|Deerfield, Illinois
SP500|DIS|Walt Disney Co.|Consumer Discretionary|Burbank, California
SP500|WPO|Washington Post Co B|Consumer Discretionary|Washington D.C
SP500|WM|Waste Management Inc.|Industrials|Houston, Texas
SP500|WAT|Waters Corporation|Health Care|Milford, Massachusetts
SP500|WPI|Watson Pharmaceuticals|Health Care|Corona, California
SP500|WLP|WellPoint Inc.|Health Care|Indianapolis, Indiana
SP500|WFC|Wells Fargo|Financials|San Francisco, California
SP500|WDC|Western Digital|Information Technology|Irvine, California
SP500|WU|Western Union Co|Information Technology|Englewood, Colorado
SP500|WY|Weyerhaeuser Corp.|Materials|Federal Way, Washington
SP500|WHR|Whirlpool Corp.|Consumer Discretionary|Benton Charter Township, Michigan
SP500|WFM|Whole Foods Market|Consumer Staples|Austin, Texas
SP500|WMB|Williams Cos.|Energy|Tulsa, Oklahoma
SP500|WIN|Windstream Corporation|Telecommunications Services|Little Rock, Arkansas
SP500|WEC|Wisconsin Energy Corporation|Utilities|Milwaukee, Wisconsin
SP500|WYN|Wyndham Worldwide|Consumer Discretionary|Parsippany-Troy Hills, New Jersey
SP500|WYNN|Wynn Resorts Ltd|Consumer Discretionary|Las Vegas, Nevada
SP500|XEL|Xcel Energy Inc|Utilities|Minneapolis, Minnesota
SP500|XRX|Xerox Corp.|Information Technology|Norwalk, Connecticut
SP500|XLNX|Xilinx Inc|Information Technology|San Jose, California
SP500|XL|XL Capital|Financials|Hamilton, Bermuda
SP500|YHOO|Yahoo Inc.|Information Technology|Sunnyvale, California
SP500|YUM|Yum! Brands Inc|Consumer Discretionary|Louisville, Kentucky
SP500|ZMH|Zimmer Holdings|Health Care|Warsaw, Indiana
SP500|ZION|Zions Bancorp|Financials|Salt Lake City, Utah
